<?xml version="1.0" encoding="utf-8"?>
<!-- Generator: Adobe Illustrator 15.1.0, SVG Export Plug-In . SVG Version: 6.00 Build 0)  -->
<!DOCTYPE svg PUBLIC "-//W3C//DTD SVG 1.1//EN" "http://www.w3.org/Graphics/SVG/1.1/DTD/svg11.dtd">
<svg version="1.1" id="Layer_1" xmlns="http://www.w3.org/2000/svg" xmlns:xlink="http://www.w3.org/1999/xlink" x="0px" y="0px"
	 width="316.336px" height="44.127px" viewBox="0 0 316.336 44.127" enable-background="new 0 0 316.336 44.127"
	 xml:space="preserve">
<g>
	<circle fill="#ED1C24" cx="119.717" cy="29.715" r="11.634"/>
	<circle fill="#FFDE17" cx="231.827" cy="29.715" r="11.634"/>
	<circle fill="#27AAE1" cx="280.578" cy="29.715" r="11.634"/>
	<g>
		<path d="M5.209,19.526h0.116c1.505-2.373,4.226-4.224,7.178-4.224c3.531,0,6.078,1.793,7.814,4.803
			c1.678-2.894,4.92-4.803,8.334-4.803c7.119,0,8.971,5.556,8.971,11.691V43.2h-5.209V27.861c0-3.472-0.463-7.93-5.036-7.93
			c-5.557,0-5.961,5.789-5.961,9.956V43.2h-5.209V28.847c0-3.532-0.173-8.915-4.978-8.915c-5.556,0-6.02,5.73-6.02,9.956V43.2H0
			V16.112h5.209V19.526z"/>
		<path d="M49.608,3.726c0,1.968-1.621,3.53-3.588,3.53c-1.968,0-3.588-1.562-3.588-3.53c0-2.026,1.62-3.647,3.588-3.647
			C47.987,0.079,49.608,1.7,49.608,3.726z"/>
		<rect x="43.415" y="16.112" width="5.209" height="27.088"/>
		<path d="M74.624,23.812c-2.083-2.373-4.631-3.647-7.756-3.647c-5.093,0-9.029,4.515-9.029,9.493c0,5.556,3.878,9.608,9.377,9.608
			c3.009,0,5.44-1.391,7.408-3.59v6.655c-2.374,1.274-4.747,1.796-7.467,1.796c-7.988,0-14.528-6.135-14.528-14.239
			c0-8.393,6.483-14.585,14.817-14.585c2.431,0,5.094,0.58,7.177,1.793V23.812z"/>
		<path d="M84.364,0.079v19.68h0.116c1.621-2.895,4.862-4.457,8.161-4.457c7.64,0,9.608,5.151,9.608,11.75V43.2h-5.209V27.688
			c0-4.63-0.637-7.757-5.962-7.757c-6.714,0-6.714,5.905-6.714,10.824V43.2h-5.209V0.079H84.364z"/>
		<path d="M133.464,43.2h-5.209v-4.225h-0.116c-2.083,3.067-5.325,5.151-9.203,5.151c-8.277,0-12.966-6.888-12.966-14.645
			c0-7.408,4.92-14.18,12.792-14.18c3.995,0,7.235,2.083,9.377,5.326h0.116v-4.516h5.209V43.2z M128.544,29.657
			c0-5.268-3.183-9.726-8.797-9.726c-5.383,0-8.566,4.69-8.566,9.726c0,5.093,3.067,9.84,8.566,9.84
			C125.418,39.497,128.544,34.982,128.544,29.657z"/>
		<path d="M142.308,30.524c0.058,4.63,3.184,8.973,8.161,8.973c3.993,0,6.135-2.026,8.103-5.268l4.399,2.488
			c-2.546,4.688-7.293,7.409-12.56,7.409c-8.278,0-13.313-6.252-13.313-14.239c0-8.335,4.458-14.585,13.197-14.585
			c8.625,0,12.676,6.367,12.676,14.412v0.811H142.308z M157.761,26.589c-0.636-4.052-3.299-6.772-7.466-6.772
			c-4.052,0-7.062,2.894-7.698,6.772H157.761z"/>
		<path d="M171.872,43.2h-5.21V0.079h5.21V43.2z"/>
		<path d="M201.562,26.3l10.186-10.188h6.888l-11.575,11.229L219.794,43.2h-6.771l-9.667-12.328l-1.793,1.794V43.2h-5.209V0.079
			L201.562,0V26.3z"/>
		<path d="M245.572,43.2h-5.209v-4.225h-0.114c-2.085,3.067-5.326,5.151-9.205,5.151c-8.276,0-12.963-6.888-12.963-14.645
			c0-7.408,4.919-14.18,12.791-14.18c3.993,0,7.234,2.083,9.377,5.326h0.114v-4.516h5.209V43.2z M240.653,29.657
			c0-5.268-3.183-9.726-8.799-9.726c-5.382,0-8.565,4.69-8.565,9.726c0,5.093,3.067,9.84,8.565,9.84
			C237.528,39.497,240.653,34.982,240.653,29.657z"/>
		<path d="M256.234,20.511h0.174c1.273-3.184,3.936-5.208,7.408-5.208c1.506,0,3.01,0.521,4.283,1.332l-2.373,4.746
			c-0.925-0.811-1.968-1.1-3.184-1.1c-5.613,0-6.309,5.209-6.309,9.607V43.2h-5.209V16.112h5.209V20.511z"/>
		<path d="M294.325,43.2h-5.21v-4.225h-0.114c-2.085,3.067-5.325,5.151-9.204,5.151c-8.276,0-12.965-6.888-12.965-14.645
			c0-7.408,4.92-14.18,12.791-14.18c3.994,0,7.236,2.083,9.378,5.326h0.114v-4.516h5.21V43.2z M289.404,29.657
			c0-5.268-3.183-9.726-8.797-9.726c-5.383,0-8.565,4.69-8.565,9.726c0,5.093,3.067,9.84,8.565,9.84
			C286.28,39.497,289.404,34.982,289.404,29.657z"/>
		<path d="M310.084,22.305c-0.636-1.33-1.968-2.373-3.473-2.373c-1.446,0-2.836,1.158-2.836,2.663c0,2.374,3.125,3.416,6.309,4.862
			c3.184,1.447,6.252,3.415,6.252,7.697c0,5.152-4.283,8.973-9.319,8.973c-3.936,0-7.93-2.257-9.375-6.077l4.455-2.027
			c1.101,2.027,2.432,3.475,4.92,3.475c2.199,0,4.109-1.505,4.109-3.821c0-1.446-0.693-2.142-1.91-2.952l-5.094-2.72
			c-3.009-1.621-5.209-3.126-5.209-6.83c0-4.398,3.59-7.872,7.987-7.872c3.3,0,5.963,1.793,7.409,4.746L310.084,22.305z"/>
	</g>
</g>
</svg>
